{
    "roles": [
        {
            "id": 1,
            "roleName": "ROLE_ADMIN",
            "description": "super admin",
            "users": [
                {
                    "fullName": "Aditya Reddy",
                    "active": true
                },
                {
                    "fullName": "Aditya Ravi Kiran Reddy",
                    "active": true
                },
                {
                    "fullName": "Admin",
                    "active": true
                }
            ]
        }
    ],
    "experiments": [
        {
            "id": 1,
            "name": "Experiement -1 ",
            "code": "EXP1",
            "description": "Experiement -1 ",
            "reason": "To Validate",
            "active": true
        },
        {
            "id": 2,
            "name": "Experiement -2",
            "code": "EXP2",
            "description": "Experiement -2",
            "reason": "To Reason",
            "active": true
        }
    ],
    "templates": [
        {
            "templateType": "PRJ_REPORT",
            "fileName": "flyer-copy.docx",
            "active": false
        },
        {
            "templateType": "PRJ_REPORT",
            "fileName": "flyer-copy.docx",
            "active": false
        },
        {
            "templateName": "avbdlk",
            "description": "avbdlk",
            "templateType": "avbdlk",
            "fileName": "ADITYA_KIRAN_CV_latest.doc",
            "active": false
        },
        {
            "templateName": "Combine_December",
            "description": "Combine December",
            "templateType": "Full",
            "fileName": "Combine December 21, 2020 - 2.pdf.xlsx",
            "active": false
        },
        {
            "templateName": "final",
            "description": "final",
            "templateType": "Full",
            "fileName": "final1.docx",
            "active": false
        },
        {
            "templateName": "copy",
            "description": "copy",
            "templateType": "copy",
            "fileName": "flyer-copy.docx",
            "active": false
        }
    ],
    "types": [
        {
            "typeId": 1,
            "name": "Method development",
            "code": "MD"
        },
        {
            "typeId": 2,
            "name": "Partial Validation Method development",
            "code": "PVMD"
        },
        {
            "typeId": 3,
            "name": "Method validation",
            "code": "VM"
        },
        {
            "typeId": 4,
            "name": "Addendum",
            "code": "ADM"
        },
        {
            "typeId": 5,
            "name": "Partial method validation",
            "code": "PVM"
        },
        {
            "typeId": 6,
            "name": "Subjects samples Analysis",
            "code": "SSA"
        }
    ],
    "projectTypeId": 113
}